lab5
…
3 CO2 emissions (30pt)

1. (2pt) How many missing co2 emissions are there for each year?
Analyze both missing CO2and co2_PC. Which years have most missing
data?

library(dplyr)
missing_co2 <- gapminder %>% 
  group_by(time) %>% 
  summarise(missing_co2 = sum(is.na(co2)), missing_co2_pc =   sum(is.na(co2_PC))) %>% 
  arrange(desc(missing_co2))
missing_co2

## # A tibble: 61 x 3
##     time missing_co2 missing_co2_pc
##    <dbl>       <int>          <int>
##  1  2017         217            217
##  2  2018         217            217
##  3  2019         217            217
##  4  1960          60             60
##  5  1961          60             60
##  6  1962          58             58
##  7  1963          57             57
##  8  1964          51             51
##  9  1965          51             51
## 10  1966          51             51
## # ... with 51 more rows
…
